ISSS624 - Hands-on Exercise 1: Geospatial Data Wrangling with R
…
Rows: 4252 Columns: 16
── Column specification ────────────────────────────────────────────────────────
Delimiter: ","
chr   (5): name, host_name, neighbourhood_group, neighbourhood, room_type
dbl  (10): id, host_id, latitude, longitude, price, minimum_nights, number_o...
date  (1): last_review

ℹ Use `spec()` to retrieve the full column specification for this data.
ℹ Specify the column types or set `show_col_types = FALSE` to quiet this message.

list(listings)

[[1]]
# A tibble: 4,252 × 16
       id name      host_id host_name neighbourhood_group neighbourhood latitude
    <dbl> <chr>       <dbl> <chr>     <chr>               <chr>            <dbl>
 1  50646 Pleasant…  227796 Sujatha   Central Region      Bukit Timah       1.33
 2  71609 Ensuite …  367042 Belinda   East Region         Tampines          1.35
 3  71896 B&B  Roo…  367042 Belinda   East Region         Tampines          1.35
 4  71903 Room 2-n…  367042 Belinda   East Region         Tampines          1.35
 5 275343 Convenie… 1439258 Joyce     Central Region      Bukit Merah       1.29
 6 275344 15 mins … 1439258 Joyce     Central Region      Bukit Merah       1.29
 7 294281 5 mins w… 1521514 Elizabeth Central Region      Newton            1.31
 8 301247 Nice roo… 1552002 Rahul     Central Region      Geylang           1.32
 9 324945 20 Mins … 1439258 Joyce     Central Region      Bukit Merah       1.29
10 330089 Accomo@ … 1439258 Joyce     Central Region      Bukit Merah       1.29
# ℹ 4,242 more rows
# ℹ 9 more variables: longitude <dbl>, room_type <chr>, price <dbl>,
#   minimum_nights <dbl>, number_of_reviews <dbl>, last_review <date>,
#   reviews_per_month <dbl>, calculated_host_listings_count <dbl>,
#   availability_365 <dbl>
…
