ISSS624 - In-class Exercise 3: Spatial
…
show code

pop <- read_csv("data/aspatial/pop.csv")

pop <- pop %>%
  left_join(mpsz,
            by = c("PA" = "PLN_AREA_N",
                   "SZ" = "SUBZONE_N")) %>%
  select(1:6) %>%
  rename(SZ_NAME = SZ,
         SZ = SUBZONE_C)

pop

# A tibble: 332 × 6
   PA         SZ_NAME                AGE7_12 AGE13_24 AGE25_64 SZ    
   <chr>      <chr>                    <dbl>    <dbl>    <dbl> <chr> 
 1 ANG MO KIO ANG MO KIO TOWN CENTRE     310      710     2780 AMSZ01
 2 ANG MO KIO CHENG SAN                 1140     2770    15700 AMSZ02
 3 ANG MO KIO CHONG BOON                1010     2650    14240 AMSZ03
 4 ANG MO KIO KEBUN BAHRU               1050     2390    12460 AMSZ06
 5 ANG MO KIO SEMBAWANG HILLS            420     1120     3620 AMSZ07
 6 ANG MO KIO SHANGRI-LA                 810     1920     9650 AMSZ05
 7 ANG MO KIO TAGORE                     390     1150     4350 AMSZ08
 8 ANG MO KIO TOWNSVILLE                 980     2000    11320 AMSZ04
 9 ANG MO KIO YIO CHU KANG                 0        0        0 AMSZ10
10 ANG MO KIO YIO CHU KANG EAST          260      650     2500 AMSZ12
# ℹ 322 more rows
…
